{
  "totalPages": 191,
  "totalElements": 1901,
  "numberOfElements": 0,
  "size": 10,
  "number": 0,
  "content": [
    {
      "issueId": 46638,
      "issueNum": "AG-4934",
      "typeCode": "sub_task",
      "summary": "创建foundation服务，及调整配置与项目结构",
      "assigneeId": 7097,
      "reporterId": 7097,
      "projectId": 28,
      "issueTypeId": 17,
      "assigneeName": "16376陈士男",
      "reporterName": "16376陈士男",
      "reporterImageUrl": "https://minio.choerodon.com.cn/iam-service/da73b005eb2b4ac8a890bd64d9306e97_%3F%3F%3F.png",
      "assigneeImageUrl": "https://minio.choerodon.com.cn/iam-service/da73b005eb2b4ac8a890bd64d9306e97_%3F%3F%3F.png",
      "epicName": null,
      "epicId": 0,
      "epicColor": null,
      "storyPoints": null,
      "addIssue": null,
      "remainingTime": 2.0,
      "priorityDTO": {
        "id": 8,
        "name": "中",
        "description": "中",
        "colour": "#3575DF",
        "organizationId": 4,
        "objectVersionNumber": 1,
        "sequence": 1,
        "enable": true,
        "default": true
      },
      "statusMapDTO": {
        "id": 6,
        "name": "已完成",
        "code": "complete",
        "description": "已完成",
        "type": "done",
        "organizationId": 4,
        "objectVersionNumber": 1,
        "completed": null,
        "canDelete": null
      },
      "issueTypeDTO": {
        "id": 17,
        "name": "子任务",
        "icon": "agile_subtask",
        "description": "子任务",
        "organizationId": 4,
        "colour": "#4d90fe",
        "typeCode": "sub_task",
        "initialize": true,
        "objectVersionNumber": 1
      },
      "lastUpdateDate": "2019-03-29 11:37:56",
      "versionIssueRelDTOS": [
        {
          "versionId": 364,
          "issueId": 46638,
          "name": "0.16.0",
          "projectId": 28,
          "relationType": "fix",
          "statusCode": "version_planning"
        }
      ],
      "labelIssueRelDTOS": [],
      "issueSprintDTOS": [
        {
          "sprintName": "3/25-4/4冲刺 18",
          "statusCode": "started",
          "sprintId": 1857
        }
      ],
      "issueComponentBriefDTOS": []
    },
    {
      "issueId": 46636,
      "issueNum": "AG-4933",
      "typeCode": "sub_task",
      "summary": "ART页面逻辑重新修改",
      "assigneeId": 10635,
      "reporterId": 10635,
      "projectId": 28,
      "issueTypeId": 17,
      "assigneeName": "20615李文斐",
      "reporterName": "20615李文斐",
      "reporterImageUrl": "https://minio.choerodon.com.cn/iam-service/file_219ce90e5973404ca351485453de2c8d_A63D7C242F3DAC79F718E11F56595B8F.jpg",
      "assigneeImageUrl": "https://minio.choerodon.com.cn/iam-service/file_219ce90e5973404ca351485453de2c8d_A63D7C242F3DAC79F718E11F56595B8F.jpg",
      "epicName": null,
      "epicId": 0,
      "epicColor": null,
      "storyPoints": null,
      "addIssue": null,
      "remainingTime": null,
      "priorityDTO": {
        "id": 8,
        "name": "中",
        "description": "中",
        "colour": "#3575DF",
        "organizationId": 4,
        "objectVersionNumber": 1,
        "sequence": 1,
        "enable": true,
        "default": true
      },
      "statusMapDTO": {
        "id": 5,
        "name": "处理中",
        "code": "processing",
        "description": "处理中",
        "type": "doing",
        "organizationId": 4,
        "objectVersionNumber": 1,
        "completed": null,
        "canDelete": null
      },
      "issueTypeDTO": {
        "id": 17,
        "name": "子任务",
        "icon": "agile_subtask",
        "description": "子任务",
        "organizationId": 4,
        "colour": "#4d90fe",
        "typeCode": "sub_task",
        "initialize": true,
        "objectVersionNumber": 1
      },
      "lastUpdateDate": "2019-03-29 09:52:16",
      "versionIssueRelDTOS": [],
      "labelIssueRelDTOS": [],
      "issueSprintDTOS": [
        {
          "sprintName": "3/25-4/4冲刺 18",
          "statusCode": "started",
          "sprintId": 1857
        }
      ],
      "issueComponentBriefDTOS": []
    },
    {
      "issueId": 46625,
      "issueNum": "AG-4932",
      "typeCode": "task",
      "summary": "wiki空间加载性能优化",
      "assigneeId": 2357,
      "reporterId": 2357,
      "projectId": 28,
      "issueTypeId": 16,
      "assigneeName": "9204王琴胜",
      "reporterName": "9204王琴胜",
      "reporterImageUrl": "https://minio.choerodon.com.cn/iam-service/file_b2b03330a1944149aea7baa143bd3bb4_Tulips.jpg",
      "assigneeImageUrl": "https://minio.choerodon.com.cn/iam-service/file_b2b03330a1944149aea7baa143bd3bb4_Tulips.jpg",
      "epicName": null,
      "epicId": 0,
      "epicColor": null,
      "storyPoints": null,
      "addIssue": null,
      "remainingTime": 6.0,
      "priorityDTO": {
        "id": 8,
        "name": "中",
        "description": "中",
        "colour": "#3575DF",
        "organizationId": 4,
        "objectVersionNumber": 1,
        "sequence": 1,
        "enable": true,
        "default": true
      },
      "statusMapDTO": {
        "id": 5,
        "name": "处理中",
        "code": "processing",
        "description": "处理中",
        "type": "doing",
        "organizationId": 4,
        "objectVersionNumber": 1,
        "completed": null,
        "canDelete": null
      },
      "issueTypeDTO": {
        "id": 16,
        "name": "任务",
        "icon": "agile_task",
        "description": "任务",
        "organizationId": 4,
        "colour": "#4d90fe",
        "typeCode": "task",
        "initialize": true,
        "objectVersionNumber": 1
      },
      "lastUpdateDate": "2019-03-29 09:28:48",
      "versionIssueRelDTOS": [],
      "labelIssueRelDTOS": [],
      "issueSprintDTOS": [
        {
          "sprintName": "3/25-4/4冲刺 18",
          "statusCode": "started",
          "sprintId": 1857
        }
      ],
      "issueComponentBriefDTOS": []
    },
    {
      "issueId": 46614,
      "issueNum": "AG-4931",
      "typeCode": "sub_task",
      "summary": "测试计划时间条可以前后拖动",
      "assigneeId": 7631,
      "reporterId": 7631,
      "projectId": 28,
      "issueTypeId": 17,
      "assigneeName": "16965王坤奇",
      "reporterName": "16965王坤奇",
      "reporterImageUrl": "https://minio.choerodon.com.cn/iam-service/file_48f666513b6c4640abbdbf34b9cf9bd3_%3F%3Fd46401601152fed0ba0939ef9f5623dc.jpg",
      "assigneeImageUrl": "https://minio.choerodon.com.cn/iam-service/file_48f666513b6c4640abbdbf34b9cf9bd3_%3F%3Fd46401601152fed0ba0939ef9f5623dc.jpg",
      "epicName": null,
      "epicId": 0,
      "epicColor": null,
      "storyPoints": null,
      "addIssue": null,
      "remainingTime": null,
      "priorityDTO": {
        "id": 8,
        "name": "中",
        "description": "中",
        "colour": "#3575DF",
        "organizationId": 4,
        "objectVersionNumber": 1,
        "sequence": 1,
        "enable": true,
        "default": true
      },
      "statusMapDTO": {
        "id": 5,
        "name": "处理中",
        "code": "processing",
        "description": "处理中",
        "type": "doing",
        "organizationId": 4,
        "objectVersionNumber": 1,
        "completed": null,
        "canDelete": null
      },
      "issueTypeDTO": {
        "id": 17,
        "name": "子任务",
        "icon": "agile_subtask",
        "description": "子任务",
        "organizationId": 4,
        "colour": "#4d90fe",
        "typeCode": "sub_task",
        "initialize": true,
        "objectVersionNumber": 1
      },
      "lastUpdateDate": "2019-03-29 09:07:10",
      "versionIssueRelDTOS": [],
      "labelIssueRelDTOS": [],
      "issueSprintDTOS": [
        {
          "sprintName": "3/25-4/4冲刺 18",
          "statusCode": "started",
          "sprintId": 1857
        }
      ],
      "issueComponentBriefDTOS": []
    },
    {
      "issueId": 46609,
      "issueNum": "AG-4930",
      "typeCode": "bug",
      "summary": "测试计划时间条调整不了的bug",
      "assigneeId": 7631,
      "reporterId": 7631,
      "projectId": 28,
      "issueTypeId": 15,
      "assigneeName": "16965王坤奇",
      "reporterName": "16965王坤奇",
      "reporterImageUrl": "https://minio.choerodon.com.cn/iam-service/file_48f666513b6c4640abbdbf34b9cf9bd3_%3F%3Fd46401601152fed0ba0939ef9f5623dc.jpg",
      "assigneeImageUrl": "https://minio.choerodon.com.cn/iam-service/file_48f666513b6c4640abbdbf34b9cf9bd3_%3F%3Fd46401601152fed0ba0939ef9f5623dc.jpg",
      "epicName": null,
      "epicId": 0,
      "epicColor": null,
      "storyPoints": null,
      "addIssue": null,
      "remainingTime": null,
      "priorityDTO": {
        "id": 8,
        "name": "中",
        "description": "中",
        "colour": "#3575DF",
        "organizationId": 4,
        "objectVersionNumber": 1,
        "sequence": 1,
        "enable": true,
        "default": true
      },
      "statusMapDTO": {
        "id": 5,
        "name": "处理中",
        "code": "processing",
        "description": "处理中",
        "type": "doing",
        "organizationId": 4,
        "objectVersionNumber": 1,
        "completed": null,
        "canDelete": null
      },
      "issueTypeDTO": {
        "id": 15,
        "name": "缺陷",
        "icon": "agile_fault",
        "description": "缺陷",
        "organizationId": 4,
        "colour": "#f44336",
        "typeCode": "bug",
        "initialize": true,
        "objectVersionNumber": 1
      },
      "lastUpdateDate": "2019-03-29 09:24:04",
      "versionIssueRelDTOS": [],
      "labelIssueRelDTOS": [],
      "issueSprintDTOS": [
        {
          "sprintName": "3/25-4/4冲刺 18",
          "statusCode": "started",
          "sprintId": 1857
        }
      ],
      "issueComponentBriefDTOS": []
    },
    {
      "issueId": 46568,
      "issueNum": "AG-4929",
      "typeCode": "task",
      "summary": "非要嘎嘎嘎嘎嘎嘎嘎故酷酷酷酷酷酷酷酷酷酷酷酷酷酷酷酷酷酷u一个喀喀喀喀喀喀喀喀喀喀喀喀喀喀喀看哈哈哈哈哈哈哈哈哈哈哈哈哈哈酷酷酷酷酷酷酷酷酷酷酷酷酷酷酷哈哈哈哈哈哈哈哈看u酷酷酷酷酷酷酷酷酷酷酷u有有有有有有有有有水水水水水水水水是顶顶顶顶顶顶顶顶顶顶顶顶顶啦啦啦啦啦啦啦啦啦胡湖u当初苏丹国苏丹更合适的或多或少开始的华东数控快速的成熟度和测试嘀咕v速可达的话触手可及的初速度和叔叔大苏打的呼声肯定会成都看",
      "assigneeId": null,
      "reporterId": 13103,
      "projectId": 28,
      "issueTypeId": 16,
      "assigneeName": null,
      "reporterName": "21479高钰淋",
      "reporterImageUrl": "https://minio.choerodon.com.cn/iam-service/file_bd6d752222d84fd3a315f882bae65634_%3F%3F2.png",
      "assigneeImageUrl": null,
      "epicName": null,
      "epicId": 0,
      "epicColor": null,
      "storyPoints": null,
      "addIssue": null,
      "remainingTime": null,
      "priorityDTO": {
        "id": 8,
        "name": "中",
        "description": "中",
        "colour": "#3575DF",
        "organizationId": 4,
        "objectVersionNumber": 1,
        "sequence": 1,
        "enable": true,
        "default": true
      },
      "statusMapDTO": {
        "id": 4,
        "name": "待处理",
        "code": "create",
        "description": "待处理",
        "type": "todo",
        "organizationId": 4,
        "objectVersionNumber": 1,
        "completed": null,
        "canDelete": null
      },
      "issueTypeDTO": {
        "id": 16,
        "name": "任务",
        "icon": "agile_task",
        "description": "任务",
        "organizationId": 4,
        "colour": "#4d90fe",
        "typeCode": "task",
        "initialize": true,
        "objectVersionNumber": 1
      },
      "lastUpdateDate": "2019-03-28 19:37:37",
      "versionIssueRelDTOS": [],
      "labelIssueRelDTOS": [],
      "issueSprintDTOS": [],
      "issueComponentBriefDTOS": []
    },
    {
      "issueId": 46566,
      "issueNum": "AG-4928",
      "typeCode": "task",
      "summary": "大家还是哈哈哈哈哈哈哈不含税单价和是顶顶顶顶顶顶顶顶顶顶空间的是件好事好哒",
      "assigneeId": null,
      "reporterId": 13103,
      "projectId": 28,
      "issueTypeId": 16,
      "assigneeName": null,
      "reporterName": "21479高钰淋",
      "reporterImageUrl": "https://minio.choerodon.com.cn/iam-service/file_bd6d752222d84fd3a315f882bae65634_%3F%3F2.png",
      "assigneeImageUrl": null,
      "epicName": null,
      "epicId": 0,
      "epicColor": null,
      "storyPoints": null,
      "addIssue": null,
      "remainingTime": null,
      "priorityDTO": {
        "id": 8,
        "name": "中",
        "description": "中",
        "colour": "#3575DF",
        "organizationId": 4,
        "objectVersionNumber": 1,
        "sequence": 1,
        "enable": true,
        "default": true
      },
      "statusMapDTO": {
        "id": 4,
        "name": "待处理",
        "code": "create",
        "description": "待处理",
        "type": "todo",
        "organizationId": 4,
        "objectVersionNumber": 1,
        "completed": null,
        "canDelete": null
      },
      "issueTypeDTO": {
        "id": 16,
        "name": "任务",
        "icon": "agile_task",
        "description": "任务",
        "organizationId": 4,
        "colour": "#4d90fe",
        "typeCode": "task",
        "initialize": true,
        "objectVersionNumber": 1
      },
      "lastUpdateDate": "2019-03-28 19:35:20",
      "versionIssueRelDTOS": [],
      "labelIssueRelDTOS": [],
      "issueSprintDTOS": [],
      "issueComponentBriefDTOS": []
    },
    {
      "issueId": 46555,
      "issueNum": "AG-4927",
      "typeCode": "task",
      "summary": "补充test服务的DTO的字段注释",
      "assigneeId": 3347,
      "reporterId": 3347,
      "projectId": 28,
      "issueTypeId": 16,
      "assigneeName": "10964王喆",
      "reporterName": "10964王喆",
      "reporterImageUrl": "https://minio.choerodon.com.cn/iam-service/file_d3e681c167c74dac820ec8bd28a80de5_%3F%3F%3F%3F%202018-11-09%20%3F%3F6.29.12.png",
      "assigneeImageUrl": "https://minio.choerodon.com.cn/iam-service/file_d3e681c167c74dac820ec8bd28a80de5_%3F%3F%3F%3F%202018-11-09%20%3F%3F6.29.12.png",
      "epicName": null,
      "epicId": 0,
      "epicColor": null,
      "storyPoints": null,
      "addIssue": null,
      "remainingTime": null,
      "priorityDTO": {
        "id": 8,
        "name": "中",
        "description": "中",
        "colour": "#3575DF",
        "organizationId": 4,
        "objectVersionNumber": 1,
        "sequence": 1,
        "enable": true,
        "default": true
      },
      "statusMapDTO": {
        "id": 4,
        "name": "待处理",
        "code": "create",
        "description": "待处理",
        "type": "todo",
        "organizationId": 4,
        "objectVersionNumber": 1,
        "completed": null,
        "canDelete": null
      },
      "issueTypeDTO": {
        "id": 16,
        "name": "任务",
        "icon": "agile_task",
        "description": "任务",
        "organizationId": 4,
        "colour": "#4d90fe",
        "typeCode": "task",
        "initialize": true,
        "objectVersionNumber": 1
      },
      "lastUpdateDate": "2019-03-28 17:57:58",
      "versionIssueRelDTOS": [],
      "labelIssueRelDTOS": [],
      "issueSprintDTOS": [
        {
          "sprintName": "3/25-4/4冲刺 18",
          "statusCode": "started",
          "sprintId": 1857
        }
      ],
      "issueComponentBriefDTOS": []
    },
    {
      "issueId": 46399,
      "issueNum": "AG-4926",
      "typeCode": "task",
      "summary": "补充wiki服务的DTO的字段注释",
      "assigneeId": 2357,
      "reporterId": 2357,
      "projectId": 28,
      "issueTypeId": 16,
      "assigneeName": "9204王琴胜",
      "reporterName": "9204王琴胜",
      "reporterImageUrl": "https://minio.choerodon.com.cn/iam-service/file_b2b03330a1944149aea7baa143bd3bb4_Tulips.jpg",
      "assigneeImageUrl": "https://minio.choerodon.com.cn/iam-service/file_b2b03330a1944149aea7baa143bd3bb4_Tulips.jpg",
      "epicName": null,
      "epicId": 0,
      "epicColor": null,
      "storyPoints": null,
      "addIssue": null,
      "remainingTime": 4.0,
      "priorityDTO": {
        "id": 8,
        "name": "中",
        "description": "中",
        "colour": "#3575DF",
        "organizationId": 4,
        "objectVersionNumber": 1,
        "sequence": 1,
        "enable": true,
        "default": true
      },
      "statusMapDTO": {
        "id": 5,
        "name": "处理中",
        "code": "processing",
        "description": "处理中",
        "type": "doing",
        "organizationId": 4,
        "objectVersionNumber": 1,
        "completed": null,
        "canDelete": null
      },
      "issueTypeDTO": {
        "id": 16,
        "name": "任务",
        "icon": "agile_task",
        "description": "任务",
        "organizationId": 4,
        "colour": "#4d90fe",
        "typeCode": "task",
        "initialize": true,
        "objectVersionNumber": 1
      },
      "lastUpdateDate": "2019-03-28 09:11:40",
      "versionIssueRelDTOS": [],
      "labelIssueRelDTOS": [],
      "issueSprintDTOS": [
        {
          "sprintName": "3/25-4/4冲刺 18",
          "statusCode": "started",
          "sprintId": 1857
        }
      ],
      "issueComponentBriefDTOS": []
    },
    {
      "issueId": 46343,
      "issueNum": "AG-4884",
      "typeCode": "task",
      "summary": "wiki二次创建文档性能优化",
      "assigneeId": 2357,
      "reporterId": 2357,
      "projectId": 28,
      "issueTypeId": 16,
      "assigneeName": "9204王琴胜",
      "reporterName": "9204王琴胜",
      "reporterImageUrl": "https://minio.choerodon.com.cn/iam-service/file_b2b03330a1944149aea7baa143bd3bb4_Tulips.jpg",
      "assigneeImageUrl": "https://minio.choerodon.com.cn/iam-service/file_b2b03330a1944149aea7baa143bd3bb4_Tulips.jpg",
      "epicName": null,
      "epicId": 0,
      "epicColor": null,
      "storyPoints": null,
      "addIssue": null,
      "remainingTime": null,
      "priorityDTO": {
        "id": 8,
        "name": "中",
        "description": "中",
        "colour": "#3575DF",
        "organizationId": 4,
        "objectVersionNumber": 1,
        "sequence": 1,
        "enable": true,
        "default": true
      },
      "statusMapDTO": {
        "id": 6,
        "name": "已完成",
        "code": "complete",
        "description": "已完成",
        "type": "done",
        "organizationId": 4,
        "objectVersionNumber": 1,
        "completed": null,
        "canDelete": null
      },
      "issueTypeDTO": {
        "id": 16,
        "name": "任务",
        "icon": "agile_task",
        "description": "任务",
        "organizationId": 4,
        "colour": "#4d90fe",
        "typeCode": "task",
        "initialize": true,
        "objectVersionNumber": 1
      },
      "lastUpdateDate": "2019-03-27 20:13:39",
      "versionIssueRelDTOS": [],
      "labelIssueRelDTOS": [],
      "issueSprintDTOS": [
        {
          "sprintName": "3/25-4/4冲刺 18",
          "statusCode": "started",
          "sprintId": 1857
        }
      ],
      "issueComponentBriefDTOS": []
    }
  ],
  "empty": false
}
